/var/www/html/java-ci-cd/src/main/java/it/univpm/demo/demo/Model.java
/var/www/html/java-ci-cd/src/main/java/it/univpm/demo/demo/DemoApplication.java
/var/www/html/java-ci-cd/src/main/java/it/univpm/demo/demo/DemoController.java
